Splatter: Geoinside: Points in polygons via sf
…
# The final haul data:
haul_location

Simple feature collection with 100 features and 4 fields
geometry type:  POINT
dimension:      XY
bbox:           xmin: -29.09662 ymin: 63.91149 xmax: -26.96332 ymax: 65.09733
epsg (SRID):    4326
proj4string:    +proj=longlat +datum=WGS84 +no_defs
# A tibble: 100 x 5
     tow   lon   lat             geometry Rectangle
   <int> <dbl> <dbl>          <POINT [°]> <chr>    
 1     1 -28.9  64.3    (-28.88257 64.27) 57C1     
 2     2 -28.5  64.6 (-28.50275 64.56561) 58C1     
 3     3 -27.4  64.7 (-27.41364 64.72319) 58C2     
 4     4 -28.6  64.1 (-28.60579 64.11797) 57C1     
 5     5 -28.7  64.8 (-28.65462 64.79867) 58C1     
 6     6 -28.4  64.7 (-28.43283 64.69901) 58C1     
 7     7 -28.6  64.8  (-28.5702 64.79411) 58C1     
 8     8 -28.3  64.0 (-28.28353 64.04047) 57C1     
 9     9 -27.9  64.6 (-27.88862 64.62368) 58C2     
10    10 -27.5  64.9 (-27.45648 64.85975) 58C2     
# … with 90 more rows
…
Simple feature collection with 100 features and 3 fields
geometry type:  POINT
dimension:      XY
bbox:           xmin: -29.09662 ymin: 63.91149 xmax: -26.96332 ymax: 65.09733
epsg (SRID):    4326
proj4string:    +proj=longlat +datum=WGS84 +no_defs
# A tibble: 100 x 4
     tow   lon   lat             geometry
   <int> <dbl> <dbl>          <POINT [°]>
 1     1 -28.9  64.3    (-28.88257 64.27)
 2     2 -28.5  64.6 (-28.50275 64.56561)
 3     3 -27.4  64.7 (-27.41364 64.72319)
 4     4 -28.6  64.1 (-28.60579 64.11797)
 5     5 -28.7  64.8 (-28.65462 64.79867)
 6     6 -28.4  64.7 (-28.43283 64.69901)
 7     7 -28.6  64.8  (-28.5702 64.79411)
 8     8 -28.3  64.0 (-28.28353 64.04047)
 9     9 -27.9  64.6 (-27.88862 64.62368)
10    10 -27.5  64.9 (-27.45648 64.85975)
# … with 90 more rows
…
In our case we are interested in adding the variable “Rectangle” from the icesr-dataframe to the haul-dataframe, where spatial object in the former is a polygon while in the latter we have spatial points. This final step is achieved by using the st_join function:

haul_location <- 
  haul_location %>% 
  st_join(icesr["Rectangle"])
haul_location

Simple feature collection with 100 features and 4 fields
geometry type:  POINT
dimension:      XY
bbox:           xmin: -29.09662 ymin: 63.91149 xmax: -26.96332 ymax: 65.09733
epsg (SRID):    4326
proj4string:    +proj=longlat +datum=WGS84 +no_defs
# A tibble: 100 x 5
     tow   lon   lat             geometry Rectangle
   <int> <dbl> <dbl>          <POINT [°]> <chr>    
 1     1 -28.9  64.3    (-28.88257 64.27) 57C1     
 2     2 -28.5  64.6 (-28.50275 64.56561) 58C1     
 3     3 -27.4  64.7 (-27.41364 64.72319) 58C2     
 4     4 -28.6  64.1 (-28.60579 64.11797) 57C1     
 5     5 -28.7  64.8 (-28.65462 64.79867) 58C1     
 6     6 -28.4  64.7 (-28.43283 64.69901) 58C1     
 7     7 -28.6  64.8  (-28.5702 64.79411) 58C1     
 8     8 -28.3  64.0 (-28.28353 64.04047) 57C1     
 9     9 -27.9  64.6 (-27.88862 64.62368) 58C2     
10    10 -27.5  64.9 (-27.45648 64.85975) 58C2     
# … with 90 more rows
…
